{
	"variables": [],
	"info": {
		"name": "BookStore",
		"_postman_id": "33d62024-0047-bc90-2726-24787be0011a",
		"description": "",
		"schema": "https://schema.getpostman.com/json/collection/v2.0.0/collection.json"
	},
	"item": [
		{
			"name": "bookList",
			"request": {
				"url": "{{endpoint}}/books",
				"method": "GET",
				"header": [],
				"body": {},
				"description": ""
			},
			"response": []
		},
		{
			"name": "user - Delete",
			"request": {
				"url": "{{endpoint}}/users",
				"method": "DELETE",
				"header": [],
				"body": {},
				"description": ""
			},
			"response": []
		},
		{
			"name": "users",
			"request": {
				"url": "{{endpoint}}/users",
				"method": "GET",
				"header": [],
				"body": {},
				"description": ""
			},
			"response": []
		},
		{
			"name": "users - update",
			"request": {
				"url": "{{endpoint}}/users",
				"method": "PUT",
				"header": [
					{
						"key": "Content-Type",
						"value": "application/json",
						"description": ""
					}
				],
				"body": {
					"mode": "raw",
					"raw": "{\n\"id\":2,\n\"name\":\"Nuy\",\n\"surname\":\"Small\",\n\"password\":\"TestPW\",\n\"date_of_birth\": \"2019-05-22\"\n}"
				},
				"description": "{\n\tid: 1,\n\tname: 'Update 1',\n\tsurname: 'check 1',\n\tpassword: '1111',\n\tdate_of_birth: '11/05/2022'\n}"
			},
			"response": [
				{
					"id": "aed4cad3-133e-4a8d-898a-9343ffd9fd27",
					"name": "{ \t\"id\":3, \t\"name\":\"SCB\", \t\"surname\":\"EAZY\", \t\"password\":\"2018\", \t\"date_of_birth\": \"2019-05-22\" }users - update",
					"originalRequest": {
						"url": "{{endpoint}}/users",
						"method": "PUT",
						"header": [
							{
								"key": "Content-Type",
								"value": "application/json",
								"description": "",
								"warning": ""
							},
							{
								"key": "Authorization",
								"type": "text",
								"name": "Authorization",
								"value": "Basic TnV5IFNtYWxsOlRlc3RQVw==",
								"description": ""
							}
						],
						"body": {
							"mode": "raw",
							"raw": "{\n\t\"id\":3,\n\t\"name\":\"SCB\",\n\t\"surname\":\"EAZY\",\n\t\"password\":\"2018\",\n\t\"date_of_birth\": \"2019-05-22\"\n}"
						}
					},
					"status": "OK",
					"code": 200,
					"_postman_previewlanguage": "plainText",
					"_postman_previewtype": "text",
					"header": [
						{
							"name": "cache-control",
							"key": "cache-control",
							"value": "no-cache, no-store, max-age=0, must-revalidate",
							"description": "Tells all caching mechanisms from server to client whether they may cache this object. It is measured in seconds"
						},
						{
							"name": "content-length",
							"key": "content-length",
							"value": "0",
							"description": "The length of the response body in octets (8-bit bytes)"
						},
						{
							"name": "date",
							"key": "date",
							"value": "Sun, 18 Nov 2018 17:49:43 GMT",
							"description": "The date and time that the message was sent"
						},
						{
							"name": "expires",
							"key": "expires",
							"value": "0",
							"description": "Gives the date/time after which the response is considered stale"
						},
						{
							"name": "pragma",
							"key": "pragma",
							"value": "no-cache",
							"description": "Implementation-specific headers that may have various effects anywhere along the request-response chain."
						},
						{
							"name": "x-content-type-options",
							"key": "x-content-type-options",
							"value": "nosniff",
							"description": "The only defined value, \"nosniff\", prevents Internet Explorer from MIME-sniffing a response away from the declared content-type"
						},
						{
							"name": "x-frame-options",
							"key": "x-frame-options",
							"value": "DENY",
							"description": "Clickjacking protection: \"deny\" - no rendering within a frame, \"sameorigin\" - no rendering if origin mismatch"
						},
						{
							"name": "x-xss-protection",
							"key": "x-xss-protection",
							"value": "1; mode=block",
							"description": "Cross-site scripting (XSS) filter"
						}
					],
					"cookie": [],
					"responseTime": 130,
					"body": ""
				}
			]
		},
		{
			"name": "users - add",
			"request": {
				"url": "{{endpoint}}/users",
				"method": "POST",
				"header": [
					{
						"key": "Content-Type",
						"value": "application/json",
						"description": ""
					}
				],
				"body": {
					"mode": "raw",
					"raw": "{\n\"name\":\"Chalasa\",\n\"surname\":\"Leksaravut\",\n\"password\":\"3333\",\n\"date_of_birth\": \"2000-10-31\"\n}"
				},
				"description": "{\n\t\"name\":\"Chalasa\",\n\t\"surname\":\"Leksaravut\",\n\t\"password\":\"3333\",\n\t\"date_of_birth\": \"2000-10-31\"\n}"
			},
			"response": []
		},
		{
			"name": "login",
			"request": {
				"url": "{{endpoint}}/login",
				"method": "POST",
				"header": [
					{
						"key": "Content-Type",
						"value": "application/json",
						"description": ""
					}
				],
				"body": {
					"mode": "raw",
					"raw": "{ \"username\": \"Nuy.Small\",\n\"password\": \"TestPW\"\n}"
				},
				"description": "{\n\tname: 'Update 1',\n\tsurname: 'check 1',\n\tpassword: '1111',\n\tdate_of_birth: '11/05/2022'\n}"
			},
			"response": []
		}
	]
}